﻿[
    {
        "_id":"c-10",
        "_parentId":"b-10",
        "_type":"component",
        "_component":"text",
        "_classes":"",
        "_layout":"full",
        "title":"개요",
        "displayTitle":"",
        "body":"오늘날 사람들은 모바일에서 점점 더 많은 시간을 보내고 있으며,  그에 따라 모바일의 동영상 소비도 크게 늘어나고 있습니다.",
        "instruction":"",
        "_pageLevelProgress": {
            "_isEnabled": true
        }
    },
    {
        "_id":"c-20",
        "_parentId":"b-20",
        "_type":"component",
        "_component":"framed-video",
        "_classes":"",
        "_layout":"left",
        "title":"Waterford Lux Resorts 동영상",
        "displayTitle":"",
        "body":"",
        "_mute":false,
        "_videoPosition":"top",
        "_videoPt":{"x":"80px","y":"0px"},
        "_componentHeight":"600px",
        "instruction":"",
        "_pageLevelProgress": {
          "_isEnabled": false
        },
        "_items": [
            {
                "video":  "<video controls poster='course/en/images/01_introduction/waterfordlux_poster.png' id='vid' width='290px' controls='controls'><source src='course/en/images/01_introduction/waterfordlux.mp4' type='video/mp4'></video>"
            }
        ]
    },
    {
        "_id":"c-21",
        "_parentId":"b-20",
        "_type":"component",
        "_component":"animate-message",
        "_classes":"",
        "_layout":"right",
        "title":"이는 마케터에게 어떤 의미가 있나요?",
        "displayTitle":"",
        "body":"<br><br><h2>이는 마케터에게 어떤 의미가 있나요?</h2>",
        "instruction":"",
        "titleAnimation":"transition.slideRightIn",
        "bodyAnimation":"transition.slideRightIn",
        "backgroundColor":"#ffffff,#ffffff,#ffffff",
        "_spacing":"10px",
        "_cornerRadius":"0px",
        "_pageLevelProgress": {
            "_isEnabled": true
        },
        "_items": [
            {
                "body":"<div style='padding-left:15px;padding-right:10px;padding-top:10px;'>모바일 동영상 시청이 폭발적으로 증가하고 있습니다. 전체 동영상 시청 중 절반 이상이 모바일에서 이루어지며,<sup>1</sup> Facebook의 모바일 동영상 소비 역시 급증하는 추세입니다.</div>"
            },
            {
                "body":"<div style='padding-left:15px;padding-right:10px;padding-top:10px;'>따라서 기존의 텔레비전 광고(TVC) 콘텐츠만으로는 이러한 추세를 따라갈 수 없습니다.  모바일 환경은 TV와는 다르기 때문에 가능하면 모바일 소비 행동을 반영하여 콘텐츠를 만들어야 합니다.</div>"
            },
            {
                "body":"<div style='padding-left:15px;padding-right:10px;padding-top:10px;'>타겟이 많은 시간을 보내는 모바일 환경에 적합한 콘텐츠를 만드세요.</div>"
            }
        ]
    },
    {
        "_id":"c-30",
        "_parentId":"b-30",
        "_type":"component",
        "_component":"text",
        "_classes":"",
        "_layout":"full",
        "title":"",
        "displayTitle":"",
        "body":"아마 기존에 보유하고 있는 TVC 콘텐츠가 있을 겁니다. 어떻게 하면 효과와 메시지 전달력을 유지하면서도 Facebook과 Instagram에 최적화된 콘텐츠로 손볼 수 있을까요?  먼저 모바일 환경에 대해 살펴보고, TVC 콘텐츠를 Facebook과 Instagram에 그대로 게재하면 기대한 성과를 거둘 수 없는 이유를 알아보겠습니다.  또한 모바일 환경에 맞게 광고를 제작해야 하는 이유도 함께 살펴보겠습니다.",
        "instruction":"",
        "_pageLevelProgress": {
        "_isEnabled": false
        }
    },
    {
        "_id":"c-40",
        "_parentId":"b-40",
        "_type":"component",
        "_component":"text",
        "_classes":"",
        "_layout":"full",
        "title":"모바일 콘텐츠 시청 양상",
        "displayTitle":"모바일 콘텐츠 시청 양상",
        "body":"모바일 콘텐츠는 빠르게, 자주 그리고 소리를 켜지 않은 상태로 시청되는 경향이 있습니다.",
        "instruction":"",
        "_pageLevelProgress": {
        "_isEnabled": true
        }
    },

    {
        "_id": "c-65",
        "_parentId": "b-65",
        "_type": "component",
        "_component": "text",
        "_classes": "",
        "_layout": "full",
        "title": "",
        "displayTitle": "",
        "body": "<h2>빠른 속도</h2><br>사람들이 모바일 동영상을 소비하는 양상은 기존의 시청 양상과 다릅니다.  사람들은 일상 속에서 피드를 빠르게 스크롤합니다.  사람들은 대개 동영상을 보기 시작한 지 몇 초 만에 이탈합니다.  이는 모바일에서 흔히 발견되는 시청 양상입니다.<br><br>아래 그림에서 녹색 선은 TVC의 일반적인 스토리 전개를 나타내며, 흰색 선은 모바일에서 일어나는 '이탈' 행동을 나타냅니다. 즉, 동영상 끝부분에 핵심 메시지와 제품을 배치하면 이를 볼 사람은 거의 없을 것입니다.",
        "instruction": "",
        "_pageLevelProgress": {
            "_isEnabled": false
        }
    },
    {
        "_id": "c-66",
        "_parentId": "b-66",
        "_type": "component",
        "_component": "text",
        "_classes": "",
        "_layout": "full",
        "title": "",
        "displayTitle": "",
        "body": "<h2>소리 없이 재생</h2><br>또한 대부분의 사람들이 일상에서 휴대폰을 진동 또는 무음 모드로 사용하고 있습니다.  이는 마케터에게 어떤 의미가 있을까요?  평균적인 시청자가 동영상 초반 몇 초만 소리를 끈 상태로 시청한다면, 브랜드 메시지를 시청자에게 제대로 전달하기 힘들 겁니다.",
        "instruction": "",
        "_pageLevelProgress": {
            "_isEnabled": false
        }
    },
    {
        "_id": "c-67",
        "_parentId": "b-67",
        "_type": "component",
        "_component": "text",
        "_classes": "",
        "_layout": "full",
        "title": "",
        "displayTitle": "",
        "body": "<h2>시청 빈도가 높음</h2><br>사람들은 하루에도 여러 번 휴대폰을 확인합니다.  사람들은 하루 내내 Facebook과 Instagram을 사용하고 기사를 읽고 콘텐츠에 반응을 보입니다.  즉, 동영상을 더 자주 더 많은 위치에 노출할 수 있음을 뜻합니다.",
        "instruction": "",
        "_pageLevelProgress": {
            "_isEnabled": false
        }
    },
    {
        "_id":"c-68",
        "_parentId":"b-68",
        "_type":"component",
        "_component":"text",
        "_classes":"",
        "_layout":"full",
        "title":"모바일 소비",
        "displayTitle":"",
        "body":"<div class='wrapper'><div class='textWrap'><div class='textFloat'><div class='text' style='font:freight-sans-pro'>핵심 메시지</div></div><!-- textFloat end --></div><img src='course/en/images/01_introduction/mobile_consumption.png' style='width:100%;'></div><!-- wrapper end -->평균적인 양상을 나타낸 도표 - 예시용",
        "instruction":"",
        "_pageLevelProgress": {
          "_isEnabled": false
        }
    },
    {
        "_id":"c-70",
        "_parentId":"b-70",
        "_type":"component",
        "_component":"text",
        "_classes":"",
        "_layout":"left",
        "title":"모바일에 최적화",
        "displayTitle":"",
        "body":"<div style='font-size:22px; color:#FFFFFF; width:160px; text-align:center; line-height:32px; position:absolute; top:270px;left:157px;'><b>모바일에 최적화된 콘텐츠</b></div><div style='align:center;padding-left:100px;'><img src='course/en/images/01_introduction/mobile_content.png' width='260px;'></div>",
        "instruction":"",
        "_pageLevelProgress": {
          "_isEnabled": false
        }
    },
    {
        "_id":"c-71",
        "_parentId":"b-70",
        "_type":"component",
        "_component":"text",
        "_classes":"",
        "_layout":"right",
        "title":"",
        "displayTitle":"",
        "body":"<br><br>요점은 TVC 자산을 모바일에 최적화하기는 쉽지 않지만, 이것이 곧 기회가 될 수도 있다는 사실입니다.<br><br>예산을 최대한 효율적으로 활용할 수 있도록 소비자 행동에 맞추어 콘텐츠를 구상해보세요.  이렇게 하면 브랜드 메시지를 더욱 효과적으로 전달하고 원하는 비즈니스 성과를 달성할 수 있습니다.  어떤 광고주라도 성과를 창출하고 광고 예산을 효율적으로 활용하는 데 최적화되지 않은 콘텐츠를 노출하는 일은 원치 않을 것입니다.",
        "instruction":"",
        "_pageLevelProgress": {
        "_isEnabled": false
        }
    },
    {
        "_id":"c-80",
        "_parentId":"b-80",
        "_type":"component",
        "_component":"text",
        "_classes":"",
        "_layout":"full",
        "title":"",
        "displayTitle":"",
        "body":"다음 과정에서는 모바일에 최적화된 동영상 콘텐츠 제작 팁을 몇 가지 살펴보겠습니다.  이 과정에서는 연구 결과를 바탕으로 모바일에 최적화된 새로운 콘텐츠를 제작하는 데 참고할 만한 팁을 살펴봅니다.<br><br><br><h2>'TVC 자산을 이미 보유한 광고주도 도움을 받을 수 있을까요?'</h2><br>아주 좋습니다!  이 과정을 잘 선택하셨습니다.  이어지는 과정에서는 기존 콘텐츠를 모바일에 최적화하기 위한 몇 가지 크리에이티브 팁을 알려드립니다.<br><br><hr><sup>1</sup>Cisco Visual Networking Index: Global Mobile Data Traffic Forecast Update, 2016~2021 백서",
        "instruction":"",
        "_pageLevelProgress": {
            "_isEnabled": false
        }
    },
    {
        "_id": "c-90",
        "_parentId": "b-90",
        "_type": "component",
        "_component": "co-jump",
        "_classes": "color-test",
        "_preLinkBody": "다음으로 ",
        "_linkBody": "모바일 피드용 동영상 제작 팁",
        "_postLinkBody": " 관련 내용을 살펴보겠습니다.",
        "_link": "#/id/co-100",
        "_graphic": "adapt/css/assets/icon_nextPage.png",
        "_pageLevelProgress": {
            "_isEnabled": false
        }
    },



    {
        "_id":"c-100",
        "_parentId":"b-100",
        "_type":"component",
        "_component":"text",
        "_classes":"",
        "_layout":"full",
        "title":"개요",
        "displayTitle":"",
        "body":"이전 과정에서는 모바일 환경의 특성을 살펴보고, TVC 콘텐츠를 Facebook과 Instagram에 그대로 게재하면 기대한 성과를 거둘 수 없는 이유를 알아보았습니다.  주어진 시간과 예산 한도 내에서, 동영상 콘텐츠를 모바일 환경에 최적화하여 제작하는 것을 고려해보세요.",
        "instruction":"",
        "_pageLevelProgress": {
            "_isEnabled": true
        }
    },
    {
        "_id":"c-101",
        "_parentId":"b-100",
        "_type":"component",
        "_component":"canvas-animation",
        "_classes":"",
        "_layout":"full",
        "title":"",
        "displayTitle":"",
        "animationName":"TestAnimation",
        "animation":"course/en/animations/testAnimation.js",
        "body":"<div style='text-align:center;font-size:20px;'>상호 보완적인 모바일 콘텐츠와 TV 콘텐츠 제작</div><br><div id='TestAnimation'></div>",
        "_resources": {
             "textStyle_1":{"font":"bold 22px freight-sans-pro","fill": "#FFFFFF","wordWrap": true,"wordWrapWidth":180,"align": "center","lineSpacing": -10},
             "textStyle_2":{"font":"bold 22px freight-sans-pro","fill": "#FFFFFF","wordWrap": true,"wordWrapWidth":180,"align": "center","lineSpacing": -10},
            "leftImage":"course/en/images/02_creative_considerations_for_video/tvc.png",
            "centerImage":"course/en/images/02_creative_considerations_for_video/plus.png",
            "rightImage":"course/en/images/01_introduction/mobile_content.png",
            "leftText":"TV에 최적화된 콘텐츠",
            "centerText":"",
            "rightText":"모바일에 최적화된 콘텐츠"
        },
        "instruction":"",
        "_pageLevelProgress": {
        "_isEnabled": false
        }
    },
    {
        "_id":"c-120",
        "_parentId":"b-120",
        "_type":"component",
        "_component":"text",
        "_classes":"",
        "_layout":"full",
        "title":"",
        "displayTitle":"",
        "body":"꼭 막대한 비용을 들여야만 모바일에 최적화된 동영상 콘텐츠를 만들 수 있는 것은 아닙니다.  저예산으로 멋진 브랜드 동영상을 제작하는 방법을 알아보려면 '비즈니스를 위한 크리에이티브 팁' 과정을 확인하세요.<i></i>  비즈니스가 간편하게 스마트폰 및 데스크톱 앱으로 몰입도 높은 크리에이티브 광고를 제작한 사례를 살펴볼 수 있습니다.",
        "instruction":""
    },
    {
        "_id":"c-130",
        "_parentId":"b-130",
        "_type":"component",
        "_component":"popup-body",
        "_classes":"",
        "_layout":"full",
        "title":"모바일 피드용 동영상 제작 팁",
        "displayTitle":"모바일 피드용 동영상 제작 팁",
        "body":"아래의 각 아이콘을 클릭하여 크리에이티브 팁을 확인해보세요.<div style ='text-align:center'><div style='padding-top:60px;'><ul class='flex-container'><li class='flex-item'><div style='color:#a9a9a9;font-size:32px'><a href='#'><div class='popups' id=1><img src='course/en/images/02_creative_considerations_for_video/capture.png' alt=\"\"id ='1' max-height='100px' max-width='1005px'height='25%' width='100px'> </div></a></div> <font color='#808080'><div style='color:#000000;font-size:18px;padding-top:25px;'><div style='max-width:200px;'><b>관심 유도</b><br>15초 이내에 빠르게 시선을 사로잡는 광고 제작</div></font></div></li><li class='flex-item'><div style='color:#a9a9a9;font-size:32px'><a href='#'><div class='popups' id=2><img src='course/en/images/02_creative_considerations_for_video/sound.png' alt=\"\"id ='2' max-height='100px' max-width='100px'height='25%' width='100px'></div></a></div><div style='color:#000000;font-size:18px;padding-top:25px;'><font color='#808080'><div style='max-width:170px;'><b>디자인</b><br>소리 없이도 이해할 수 있지만 소리를 켜면 더욱 몰입도가 높아지는 광고 제작</div></div></li><li class='flex-item'><div style='color:#a9a9a9;font-size:32px'><a href='#'><div class='popups' id=3><img src='course/en/images/02_creative_considerations_for_video/frame.png' alt=\"\"id ='3' max-height='100px' max-width='1005px'height='25%' width='100px'> </div></a></div> <font color='#808080'><div style='color:#000000;font-size:18px;padding-top:25px;'><div style='max-width:165px;'><b>화면 구성</b><br>화면을 적절히 구성하고 세로 형식에 알맞은 광고 제작</div></font></div></li><li class='flex-item'><div style='color:#a9a9a9;font-size:32px'><a href='#'><div class='popups' id=4><img src='course/en/images/02_creative_considerations_for_video/play.png' alt=\"\"id ='4' max-height='100px' max-width='100px'height='25%' width='100px'></div></a></div><div style='color:#000000;font-size:18px;padding-top:25px;'><font color='#808080'><div style='max-width:170px;'><b>테스트</b><br>크리에이티브 허브로 다양한 테스트 진행</div></div></li></ul>","popups":[{"title":"빠르게 시선을 사로잡고 15초 이내에 메시지 전달하기","body":"사람들은 피드를 스크롤하면서 콘텐츠에 반응할지 여부를 매우 빠르게 결정하기 때문에, 처음 몇 초 내에 시선을 사로잡는 것이 중요합니다. 빠른 움직임과 짧은 컷을 사용하여 브랜드 정체성과 메시지를 초반에 노출하세요.  모바일에서 광고 효과를 최대한 높이려면 15초 이내에 메시지를 전달하는 것이 무엇보다 중요합니다."}, {"title":"소리 없이도 이해할 수 있지만 소리를 켜면 더욱 몰입도가 높아지는 광고 디자인","body":"대부분의 사람들이 모바일 피드에서 소리 없이 동영상 콘텐츠를 시청하고 있으므로, 이러한 환경에서도 메시지를 명확하게 전할 수 있는 동영상을 만들어야 합니다.  시각적으로나 언어적으로(문구, 자막, 그래픽) 메시지를 표현하여 사람들이 소리를 듣지 않고도 핵심 메시지를 알 수 있도록 하세요.  음향을 추가하여 소리를 켜고 시청하는 사람들에게 더 나은 환경을 조성해주세요."}, {"title":"화면을 적절히 구성하고 세로 형식에 알맞은 광고 제작","body":"스토리를 시각적으로 어떻게 전달할지가 중요합니다.  관점에 변화를 주거나 전경과 배경을 오가면서 핵심적인 장면을 강조하고 시선을 끄는 시각 효과를 연출하세요.  세로 동영상을 제작하여 모바일에 최적화하세요."}, {"title":"크리에이티브 허브로 다양한 테스트 진행","body":"모바일 동영상으로 브랜드를 구축하는 방법에 정답은 없습니다. 다양한 요소를 바꾸어보고 꾸준한 테스트를 통해 여러분의 브랜드와 타겟에 어떤 버전이 효과적인지 이해해야 합니다.  하나 또는 일련의 동영상을 통해 스토리를 전하세요.  동영상의 길이는 자유롭게 정하되, 관심을 끌 수 있도록 최대한 빠르게 스토리를 끌어가면서 전체적으로 중요한 메시지를 전달하는 것이 좋습니다.  지속적인 테스트를 통해 성과가 가장 뛰어난 광고를 사용하세요.  크리에이티브 허브(<a href='http://creativehub.fb.com' target='_blank'>creativehub.fb.com</a>)에는 다양하게 테스트하고 영감을 얻고 협업하는 데 도움이 되는 기능이 있습니다."}],
        "instruction":"",
        "_pageLevelProgress": {
        "_isEnabled": true
        }
    },
    {
        "_id":"c-140",
        "_parentId":"b-140",
        "_type":"component",
        "_component":"text",
        "_classes":"",
        "_layout":"full",
        "title":"",
        "displayTitle":"",
        "body":"'모바일 동영상으로 광고 성과 개선하기' Blueprint 과정에서 자세히 알아보세요.<i></i>",
        "instruction":""
    },
    {
        "_id": "c-190",
        "_parentId": "b-190",
        "_type": "component",
        "_component": "co-jump",
        "_classes": "color-test",
        "_preLinkBody": "다음으로, 여러분이 활용할 만한",
        "_linkBody": "PockeTVC",
        "_postLinkBody": " 프로그램과 컨셉을 살펴보겠습니다.",
        "_link": "#/id/co-150",
        "_graphic": "adapt/css/assets/icon_nextPage.png",
        "_pageLevelProgress": {
            "_isEnabled": false
        }
    },



    {
        "_id":"c-200",
        "_parentId":"b-200",
        "_type":"component",
        "_component":"text",
        "_classes":"",
        "_layout":"full",
        "title":"개요",
        "displayTitle":"",
        "body":"가장 이상적인 방법은 모바일에 최적화된 콘텐츠를 새로 제작하는 것입니다.  하지만 콘텐츠를 새로 제작하기 어려운 경우가 있습니다. 이럴 때 브랜드가 기존에 보유한 자산을 활용하여 모바일에 최적화된 광고를 제작하는 방법을 알아보겠습니다.<br><br>앞서 말씀드린 것처럼, 사람들이 모바일 동영상을 시청하는 양상은 기존의 시청 방식과 다릅니다.  예를 들어, 감동적인 스토리와 음향 효과, 마지막에는 놀라운 반전까지 갖춘 30초 분량의 TV 광고를 보유하고 있다고 가정해 보겠습니다.  사람들은 보통 휴대폰에서 소리를 끈 채로 피드를 빠르게 스크롤하며 모든 동영상의 첫 10~15초 부분만 시청합니다.  핵심 메시지가 30초짜리 동영상 끝부분에서야 등장한다면, 과연 이 부분을 시청할 사람이 몇이나 될까요?",
        "instruction":"",
        "_pageLevelProgress": {
            "_isEnabled": true
        }
    },
    {
        "_id":"c-210",
        "_parentId":"b-210",
        "_type":"component",
        "_component":"text",
        "_classes":"",
        "_layout":"full",
        "title":"PockeTVC란?",
        "displayTitle":"PockeTVC",
        "body":"<h2>PockeTVC란?</h2><br>PockeTVC(Pocket Television Commercials)는 Facebook Creative Shop에서 개발한 프로그램입니다.  Creative Shop은 업계 파트너가 Facebook 플랫폼의 크리에이티브를 최대한 활용할 수 있도록 돕는 크리에이티브 전문가로 구성된 팀입니다.  이들은 250개가 넘는 브랜드 및 대행사와 협업하며 PockeTVC를 최대한 활용할 수 있도록 지원하고 있습니다.  Creative Shop은 TV 자산을 모바일 환경에 적합하게 재구성하는 것을 지원하기 위해 이 프로그램을 만들었습니다. PockeTVC의 기본적인 컨셉은 진입 장벽이 낮고, 적은 비용으로 기존 자산을 모바일에 최적화하는 것입니다.<br><br>크리에이티브를 새로 제작하지 않고 기존 TV 자산을 활용하여 모바일에 최적화하는 것이 핵심입니다.  연구 결과에 따르면 크리에이티브를 모바일에 최적화하면 브랜드 인지도와 메시지 연관도가 높아지는 것으로 나타났습니다.",
        "instruction":"",
        "_pageLevelProgress": {
            "_isEnabled": true
        }
    },
    {
        "_id":"c-221",
        "_parentId":"b-220",
        "_type":"component",
        "_component":"barGraph",
        "_classes":"",
        "title":"막대 그래프",
        "displayTitle":"",
        "body":"<b>TVC <br>성공<br>비율</b>",
        "instruction":"",
        "_items": [
            {
                "leftGraphHeight":"68%",
                "leftText":"PockeTVC",
                "leftColor":"#a4d2d1",
                "rightGraphHeight":"42%",
                "rightText":"원본 TV 광고",
                "rightColor":"#dadada",
                "border":"",
                "headline":"브랜드 인지도",
                "height":"600px"
            },
            {
                "leftGraphHeight":"45%",
                "leftText":"PockeTVC",
                "leftColor":"#a4d2d1",
                "rightGraphHeight":"18%",
                "rightText":"원본 TV 광고",
                "rightColor":"#dadada",
                "border":"",
                "headline":"메시지 연관도",
                "height":"600px"
             }
         ]
    },
    {
        "_id":"c-230",
        "_parentId":"b-230",
        "_type":"component",
        "_component":"text",
        "_classes":"",
        "_layout":"full",
        "title":"PockeTVC의 이점",
        "displayTitle":"",
        "body":"<h2>PockeTVC의 이점</h2><br>PockeTVC는 브랜드 메시지를 콘텐츠 전면에 내세우고, 이를 모바일 환경에서 효과적으로 전달하는 데 초점을 맞춥니다.  이 도구를 사용하면 구매 의향을 유도하고, 완성도 있고, 명확성과 객관성을 향상한 동영상 콘텐츠를 제작하는 방법을 알 수 있습니다. 이어지는 과정에서는 다음과 관련된 내용을 다룹니다.<br><br><ul><li>브랜드와 메시지를 전면에 내세웁니다.</li><li>문구와 그래픽을 활용하면 더욱 효과적으로 메시지를 전달할 수 있습니다.</li><li>광고 공간을 최대한 활용하고 자산을 화면에 어떻게 배치할지 고려합니다.</li><li>모바일 동영상에 가장 적절한 시간 내에 전체 메시지를 전달합니다.</li><li>평면적인 기승전결 전개 방식이 아닌 새로운 방식으로 스토리를 전달합니다.</li></ul>",
        "instruction":"",
        "_pageLevelProgress": {
            "_isEnabled": true
        }
    },
    {
        "_id":"c-240",
        "_parentId":"b-230",
        "_type":"component",
        "_component":"text",
        "_classes":"",
        "_layout":"full",
        "title":"예시",
        "displayTitle":"",
        "body":"아래 예시의 원본 TV 광고는 30초 길이입니다.  모바일 환경에서는 사람들의 시선을 오랫동안 붙잡아 두기가 어렵습니다.  브랜드가 처음 몇 초 만에 노출되기는 하지만 시각적 비중이 너무 적습니다.  시청자가 처음 몇 초 안에 이 미묘한 브랜드 메시지를 인식하지 못하면 동영상 끝까지 감상하면서 브랜드를 다시 확인하지는 않을 것입니다.",
        "instruction":"",
        "_pageLevelProgress": {
            "_isEnabled": true
        }
    },
    {
        "_id":"c-245",
        "_parentId":"b-235",
        "_type":"component",
        "_component":"text",
        "_classes":"",
        "_layout":"full",
        "title":"제목",
        "displayTitle":"",
        "body":"<div class='leftDiv3colText'>원본 TV 광고</div><!-- leftDiv3colText end --><div class='centerDiv3colText'>모바일 피드에<br>최적화(16:9)</div><!-- centerDiv3colText end --><div class='rightDiv3colText'>모바일 피드에<br>최적화(1:1)</div><!-- rightDiv3colText end -->",
        "instruction":"",
        "_pageLevelProgress": {
            "_isEnabled": false
        }
    },
    {
        "_id":"c-446",
        "_parentId":"b-240",
        "_type":"component",
        "_component":"media",
        "_classes":"",
        "_layout":"full",
        "title":"동영상 화면을 구성하는 방법",
        "displayTitle": "",
        "body": "",
        "instruction": "",
        "_setCompletionOn":"inview",
        "_useClosedCaptions":false,
        "_media": {
            "width":"768",
                "height":"431",
                "mp4": "course/en/images/03_pocketvc/redbull.mp4"
        },
        "_playerOptions": {
            "poster": "course/en/images/03_pocketvc/redbull_poster.png",
            "showPosterWhenEnded": false,
            "defaultVideoWidth": 768,
            "defaultVideoHeight": 431,
            "videoWidth": -1,
            "videoHeight": -1,
            "defaultAudioWidth": 768,
            "defaultAudioHeight": 30,
            "defaultSeekBackwardInterval": "(media.duration * 0.05)",
            "defaultSeekForwardInterval": "(media.duration * 0.05)",
            "audioWidth": -1,
            "audioHeight": -1,
            "startVolume": 0.8,
            "loop": false,
            "autoRewind": true,
            "enableAutosize": true,
            "alwaysShowHours": false,
            "showTimecodeFrameCount": false,
            "framesPerSecond": 25,
            "autosizeProgress" : true,
            "alwaysShowControls": true,
            "hideVideoControlsOnLoad": false,
            "clickToPlayPause": true,
            "iPadUseNativeControls": false,
            "iPhoneUseNativeControls": false,
            "AndroidUseNativeControls": false,
            "features": ["playpause","current","progress","duration","tracks","volume","fullscreen"],
            "isVideo": true,
            "enableKeyboard": true,
            "pauseOtherPlayers": true,
            "startLanguage": "",
            "tracksText": "mejs.i18n.t('Captions/Subtitles')",
            "hideCaptionsButtonWhenEmpty": true,
            "toggleCaptionsButtonWhenOnlyOne": false,
            "slidesSelector": "",
            "autoPlay": true
        },
        "_pageLevelProgress": {
          "_isEnabled": false
        }
    },
    {
        "_id":"c-250",
        "_parentId":"b-250",
        "_type":"component",
        "_component":"text",
        "_classes":"",
        "_layout":"full",
        "title":"제목",
        "displayTitle":"",
        "body":"Red Bull은 기존의 동영상을 모바일 피드에 최적화하기 위해 브랜드와 메시지를 전면에 내세우는 방식으로 동영상을 재구성했습니다.  기존 동영상을 더 짧게 편집했고, 브랜드를 세 번 노출했습니다.  또한 원본 16:9 동영상을 1:1 비율로 확장하여 공간을 최대한 활용했습니다.  이러한 방식으로 기존 자산을 활용하고 최적화하여 더욱 효과적으로 시선을 사로잡고 시각적인 스토리를 전할 수 있었습니다.",
        "instruction":"",
        "_pageLevelProgress": {
            "_isEnabled": false
        }
    },
    {
        "_id":"c-260",
        "_parentId":"b-260",
        "_type":"component",
        "_component":"text",
        "_classes":"",
        "_layout":"full",
        "title":"제목",
        "displayTitle":"",
        "body":"다음 과정에서는 Facebook과 Instagram에 최적화된 TV 광고를 만들기 위한 간단하고 실용적인 몇 가지 팁을 살펴보겠습니다.",
        "instruction":"",
        "_pageLevelProgress": {
            "_isEnabled": false
        }
    },
    {
        "_id": "c-290",
        "_parentId": "b-290",
        "_type": "component",
        "_component": "co-jump",
        "_classes": "color-test",
        "_preLinkBody": "다음으로 ",
        "_linkBody": "동영상 제작 팁",
        "_postLinkBody": "을 살펴보겠습니다.",
        "_link": "#/id/co-200",
        "_graphic": "adapt/css/assets/icon_nextPage.png",
        "_pageLevelProgress": {
            "_isEnabled": false
        }
    },


    {
        "_id":"c-300",
        "_parentId":"b-300",
        "_type":"component",
        "_component":"text",
        "_classes":"",
        "_layout":"full",
        "title":"개요",
        "displayTitle":"",
        "body":"이 과정에서는 모바일 환경에서도 사람들에게 효과적으로 메시지를 전하는 방식으로 TV 콘텐츠를 재구성하고 활용하는 방법을 살펴보겠습니다.  Facebook과 Instagram에서 텔레비전 광고를 최적화하여 모바일 환경에서도 브랜드 메시지를 효과적으로 전할 수 있는 간단한 방법 몇 가지를 알아보겠습니다.",
        "instruction":"",
        "_pageLevelProgress": {
            "_isEnabled": true
        }
    },
    {
        "_id":"c-310",
        "_parentId":"b-310",
        "_type":"component",
        "_delay":"200",
        "_color":"#F8F8F8",
        "_classes":"",
        "_component":"arrowbox",
        "_layout":"full",
        "title":"브랜드와 메시지",
        "displayTitle":"",
        "body":"<div style='margin-left:5%; margin-right:5%; height:100%; color:#000000;'><h2>브랜드와 메시지</h2><br>브랜드의 동영상 콘텐츠를 제작할 때 브랜드가 효과적으로 각인되고 브랜드 메시지가 분명하게 전달되는지 확인하세요.<br><br><ul><li><b>동영상 초반에 브랜드를 노출하세요</b><br>동영상 광고의 초반부에 브랜드를 노출하고 메시지를 보다 명확하게 전할수록 더 큰 성과를 얻을 수 있습니다. 성과가 부진한 모바일 동영상은 메시지가 불명확거나, 브랜드가 뚜렷하게 드러나지 않거나, 시청자의 다음 행동을 유도하지 못한 경우가 많았습니다.</li><br><li><b>브랜드는 단순한 로고 이상의 의미가 있습니다</b><br>브랜드를 나타내는 수단이 로고든, 색상 조합이든, 특정한 스타일이든, 브랜드만의 개성을 명확하게 표현할 수 있어야 합니다.</li><br><li><b>캠페인 메시지를 시각적으로 표현해보세요</b><br>말과 글을 제외한 시각적인 수단으로 정보를 전달해보세요. 그래픽 요소, 움직임, 설명을 돕는 이미지 등을 적절히 사용하면 효과적으로 메시지를 전달할 수 있습니다.</li><br><li><b>스토리를 빠르게 전개하세요</b> <br>TV 광고는 상황 설명을 하는데 상당한 시간을 할애하는 경우가 많습니다. 하지만 모바일 환경에서는 사람들의 시선을 빨리 사로잡아 스토리에 빠져들게 해야 핵심 메시지를 효과적으로 전달할 수 있습니다.</li></ul></div>",
        "_popupBody":"",
        "_popupTitle":"",
        "instruction":"",
        "_pageLevelProgress": {
            "_isEnabled": true
        }
    },
    {
        "_id":"c-311",
        "_parentId":"b-310",
        "_type":"component",
        "_component":"text",
        "_classes":"",
        "_layout":"full",
        "title":"Bose",
        "displayTitle":"",
        "body":"Bose의 원본 TV 광고와 모바일에 최적화된 동영상을 함께 확인해보세요.  <br><br>Bose는 캠페인에서 제품의 노이즈 캔슬링 기능을 강조하고자 했습니다. 60초 TV 광고를 여러 장면으로 쪼갠 다음, 헤드폰을 착용하고 있는 모델 이미지와 제품 이미지가 교차하는 10초 길이의 오디오 클립으로 재구성했습니다.",
        "instruction":"",
        "_pageLevelProgress": {
            "_isEnabled": false
        }
    },
    {
        "_id":"c-311a",
        "_parentId":"b-312",
        "_type":"component",
        "_component":"text",
        "_classes":"",
        "_layout":"full",
        "title":"제목",
        "displayTitle":"",
        "body":"<div class='leftDiv3colText textPaddingRight'>원본 TV 광고</div><!-- leftDiv3colText end --><div class='centerDiv3colText'>모바일에 최적화된 세로<br>동영상(10초)</div><!-- centerDiv3colText end --><div class='rightDiv3colText textPaddingLeft'>모바일에 최적화된 분할 <br>화면 동영상(10초)</div><!-- rightDiv3colText end -->",
        "instruction":"",
        "_pageLevelProgress": {
            "_isEnabled": false
        }
    },
    {
        "_id":"c-312",
        "_parentId":"b-315",
        "_type":"component",
        "_component":"media",
        "_classes":"",
        "_layout":"full",
        "title":"",
        "displayTitle": "",
        "body": "",
        "instruction": "",
        "_setCompletionOn":"inview",
        "_useClosedCaptions":false,
        "_media": {
            "width":"768",
                "height":"431",
                "mp4": "course/en/images/04_applying_craft/bose.mp4"
        },
        "_playerOptions": {
            "poster": "course/en/images/04_applying_craft/bose_poster.png",
            "showPosterWhenEnded": false,
            "defaultVideoWidth": 768,
            "defaultVideoHeight": 431,
            "videoWidth": -1,
            "videoHeight": -1,
            "defaultAudioWidth": 768,
            "defaultAudioHeight": 30,
            "defaultSeekBackwardInterval": "(media.duration * 0.05)",
            "defaultSeekForwardInterval": "(media.duration * 0.05)",
            "audioWidth": -1,
            "audioHeight": -1,
            "startVolume": 0.8,
            "loop": false,
            "autoRewind": true,
            "enableAutosize": true,
            "alwaysShowHours": false,
            "showTimecodeFrameCount": false,
            "framesPerSecond": 25,
            "autosizeProgress" : true,
            "alwaysShowControls": true,
            "hideVideoControlsOnLoad": false,
            "clickToPlayPause": true,
            "iPadUseNativeControls": false,
            "iPhoneUseNativeControls": false,
            "AndroidUseNativeControls": false,
            "features": ["playpause","current","progress","duration","tracks","volume","fullscreen"],
            "isVideo": true,
            "enableKeyboard": true,
            "pauseOtherPlayers": true,
            "startLanguage": "",
            "tracksText": "mejs.i18n.t('Captions/Subtitles')",
            "hideCaptionsButtonWhenEmpty": true,
            "toggleCaptionsButtonWhenOnlyOne": false,
            "slidesSelector": "",
            "autoPlay": true
        },
        "_pageLevelProgress": {
          "_isEnabled": false
        }
    },
    {
        "_id":"c-313",
        "_parentId":"b-315",
        "_type":"component",
        "_component":"text",
        "_classes":"",
        "_layout":"full",
        "title":"",
        "displayTitle":"",
        "body":"<br>",
        "instruction":""
    },
    {
        "_id":"c-320",
        "_parentId":"b-320",
        "_type":"component",
        "_delay":"200",
        "_color":"#F8F8F8",
        "_classes":"",
        "_component":"arrowbox",
        "_layout":"full",
        "title":"타이포그래피와 캡션",
        "displayTitle":"",
        "body":"<div style='margin-left:5%; margin-right:5%; height:100%; color:#000000;'><h2>타이포그래피와 캡션</h2><br>시청자 대부분은 소리가 꺼진 상태에서 동영상을 시청할 가능성이 큽니다. 오디오와 대사에만 의존하지 말고 텍스트와 그래픽을 적절히 활용하여 메시지를 전달해보세요.<br><br>동영상을 제작할 때 소리가 있는 상태와 없는 상태를 함께 고려하여 메시지를 효과적으로 전달하는 방법을 생각해보세요.  소리 없이도 이해할 수 있지만(타이포그래피와 자막 사용) 소리를 켜면 더욱 몰입도가 높아지는 광고를 디자인하세요.<br><br><ul><li><b>시각적 흥미를 유발하세요</b><br>인포그래픽과 크리에이티브 요소를 활용하여 스토리를 생생하게 전하세요.</li><br><li><b>맥락을 명확히 드러내세요</b><br>효과적이고 의미 있는 메시지 전달을 위해서는 사람들이 빠르게 맥락을 파악할 수 있어야 합니다. 도입부에서 명확한 메시지를 전달하여 브랜드 컨셉에 친숙하지 않은 사람들의 이해를 도와주세요.</li><br><li><b>스토리를 설명하는 커버를 만드세요</b><br>간단히 단어나 상황 설명을 추가하여 커버를 제작해보세요. 이는 TV 광고에서 오디오 효과에 해당합니다.</li></ul></div>",
        "_popupBody":"",
        "_popupTitle":"",
        "instruction":"",
        "_pageLevelProgress": {
            "_isEnabled": true
        }
    },
    {
        "_id":"c-321",
        "_parentId":"b-320",
        "_type":"component",
        "_component":"text",
        "_classes":"",
        "_layout":"full",
        "title":"Camaro",
        "displayTitle":"",
        "body":"쉐보레의 신형 모델 Camaro SS의 기존 TV 광고는 길이가 2분에 달하며, 69초에 이르러서야 핵심 메시지가 나타납니다. 그러나 모바일 동영상 광고에서는 영상 초반부터 차량을 소개했습니다. 그뿐만 아니라 카운트다운 이미지와 인포그래픽을 추가하여 사람들이 차의 기능에 이목을 집중하도록 했습니다.",
        "instruction":"",
        "_pageLevelProgress": {
            "_isEnabled": false
        }
    },
    {
        "_id":"c-323",
        "_parentId":"b-323",
        "_type":"component",
        "_component":"text",
        "_classes":"",
        "_layout":"full",
        "title":"제목",
        "displayTitle":"",
        "body":"<div class='leftDiv2colText textPaddingRight'>원본 TV 광고</div><!-- leftDiv2colText end --><div class='rightDiv2colText textPaddingLeft'>모바일에 최적화한 광고</div><!-- rightDiv2colText end -->",
        "instruction":"",
        "_pageLevelProgress": {
            "_isEnabled": false
        }
    },
    {
        "_id":"c-325",
        "_parentId":"b-325",
        "_type":"component",
        "_component":"media",
        "_classes":"",
        "_layout":"full",
        "title":"",
        "displayTitle": "",
        "body": "",
        "instruction": "",
        "_setCompletionOn":"inview",
        "_useClosedCaptions":false,
        "_media": {
            "width":"768",
                "height":"431",
                "mp4": "course/en/images/04_applying_craft/camaro.mp4"
        },
        "_playerOptions": {
            "poster": "course/en/images/04_applying_craft/camaro_poster.png",
            "showPosterWhenEnded": false,
            "defaultVideoWidth": 768,
            "defaultVideoHeight": 431,
            "videoWidth": -1,
            "videoHeight": -1,
            "defaultAudioWidth": 768,
            "defaultAudioHeight": 30,
            "defaultSeekBackwardInterval": "(media.duration * 0.05)",
            "defaultSeekForwardInterval": "(media.duration * 0.05)",
            "audioWidth": -1,
            "audioHeight": -1,
            "startVolume": 0.8,
            "loop": false,
            "autoRewind": true,
            "enableAutosize": true,
            "alwaysShowHours": false,
            "showTimecodeFrameCount": false,
            "framesPerSecond": 25,
            "autosizeProgress" : true,
            "alwaysShowControls": true,
            "hideVideoControlsOnLoad": false,
            "clickToPlayPause": true,
            "iPadUseNativeControls": false,
            "iPhoneUseNativeControls": false,
            "AndroidUseNativeControls": false,
            "features": ["playpause","current","progress","duration","tracks","volume","fullscreen"],
            "isVideo": true,
            "enableKeyboard": true,
            "pauseOtherPlayers": true,
            "startLanguage": "",
            "tracksText": "mejs.i18n.t('Captions/Subtitles')",
            "hideCaptionsButtonWhenEmpty": true,
            "toggleCaptionsButtonWhenOnlyOne": false,
            "slidesSelector": "",
            "autoPlay": true
        },
        "_pageLevelProgress": {
          "_isEnabled": false
        }
    },
    {
        "_id":"c-326",
        "_parentId":"b-325",
        "_type":"component",
        "_component":"text",
        "_classes":"",
        "_layout":"full",
        "title":"",
        "displayTitle":"",
        "body":"<br>",
        "instruction":""
    },
    {
        "_id":"c-330",
        "_parentId":"b-330",
        "_type":"component",
        "_delay":"200",
        "_color":"#F8F8F8",
        "_classes":"",
        "_component":"arrowbox",
        "_layout":"full",
        "title":"자르기 및 비율",
        "displayTitle":"",
        "body":"<div style='margin-left:5%; margin-right:5%; height:100%; color:#000000;'><h2>자르기 및 비율</h2><br>콘텐츠와 공간을 최대한 잘 활용할 수 있도록 프레임을 구성하세요.<br><br><ul><li><b>화면 비율을 모바일 환경에 최적화하세요</b><br> 정사각형 및 세로 방향 동영상을 사용하면 전체 화면을 보기 위해 휴대폰을 가로로 돌릴 필요가 없으므로 모바일에서 더 큰 광고 효과를 보이는 경우가 많습니다. 화면 비율을 Instagram에서는 4:5, Facebook 피드에서는 2:3으로 맞추는 것이 좋습니다.</li><br><li><b>화면 분할 및 이미지 레이어를 활용하세요</b><br>모바일 화면은 작지만, 그 활용법은 무궁무진합니다. 화면을 두 개 또는 그 이상으로 분할하여 한 번에 여러 스토리를 평행 구조로 전개해보세요.</li><br><li><b>제품 및 서비스의 장점을 명확하게 알리세요</b><br> 제품 및 서비스에 관한 한 가지 핵심 메시지로 광고를 시작하세요. 그런 다음 제품 또는 프로모션을 시각적으로 표현해보세요.</li></ul></div>",
        "_popupBody":"",
        "_popupTitle":"",
        "instruction":"",
        "_pageLevelProgress": {
            "_isEnabled": true
        }
    },
    {
        "_id":"c-331",
        "_parentId":"b-330",
        "_type":"component",
        "_component":"text",
        "_classes":"",
        "_layout":"full",
        "title":"Coca Cola",
        "displayTitle":"",
        "body":"Coca Cola는 화면을 분할하고 다양한 장면을 조합하여 일상(음식)과 상품(Coca Cola) 간의 연결성을 강조한 메시지를 빠르게 전달하였습니다.",
        "instruction":"",
        "_pageLevelProgress": {
            "_isEnabled": false
        }
    },
    {
        "_id":"c-331a",
        "_parentId":"b-330",
        "_type":"component",
        "_component":"text",
        "_classes":"",
        "_layout":"full",
        "title":"제목",
        "displayTitle":"",
        "body":"<div class='leftDiv3colText textPaddingRight'>원본 TV 광고</div><!-- leftDiv3colText end --><div class='centerDiv3colText'>모바일에 최적화한 광고<br>(19초)</div><!-- centerDiv3colText end --><div class='rightDiv3colText textPaddingLeft'>세로 동영상 <br>(6초)</div><!-- rightDiv3colText end -->",
        "instruction":"",
        "_pageLevelProgress": {
            "_isEnabled": false
        }
    },
    {
        "_id":"c-332",
        "_parentId":"b-335",
        "_type":"component",
        "_component":"media",
        "_classes":"",
        "_layout":"full",
        "title":"",
        "displayTitle": "",
        "body": "",
        "instruction": "",
        "_setCompletionOn":"inview",
        "_useClosedCaptions":false,
        "_media": {
            "width":"768",
                "height":"431",
                "mp4": "course/en/images/04_applying_craft/coke.mp4"
        },
        "_playerOptions": {
            "poster": "course/en/images/04_applying_craft/coke_poster.png",
            "showPosterWhenEnded": false,
            "defaultVideoWidth": 768,
            "defaultVideoHeight": 431,
            "videoWidth": -1,
            "videoHeight": -1,
            "defaultAudioWidth": 768,
            "defaultAudioHeight": 30,
            "defaultSeekBackwardInterval": "(media.duration * 0.05)",
            "defaultSeekForwardInterval": "(media.duration * 0.05)",
            "audioWidth": -1,
            "audioHeight": -1,
            "startVolume": 0.8,
            "loop": false,
            "autoRewind": true,
            "enableAutosize": true,
            "alwaysShowHours": false,
            "showTimecodeFrameCount": false,
            "framesPerSecond": 25,
            "autosizeProgress" : true,
            "alwaysShowControls": true,
            "hideVideoControlsOnLoad": false,
            "clickToPlayPause": true,
            "iPadUseNativeControls": false,
            "iPhoneUseNativeControls": false,
            "AndroidUseNativeControls": false,
            "features": ["playpause","current","progress","duration","tracks","volume","fullscreen"],
            "isVideo": true,
            "enableKeyboard": true,
            "pauseOtherPlayers": true,
            "startLanguage": "",
            "tracksText": "mejs.i18n.t('Captions/Subtitles')",
            "hideCaptionsButtonWhenEmpty": true,
            "toggleCaptionsButtonWhenOnlyOne": false,
            "slidesSelector": "",
            "autoPlay": true
        },
        "_pageLevelProgress": {
          "_isEnabled": false
        }
    },
    {
        "_id":"c-336",
        "_parentId":"b-335",
        "_type":"component",
        "_component":"text",
        "_classes":"",
        "_layout":"full",
        "title":"",
        "displayTitle":"",
        "body":"<br>",
        "instruction":""
    },
    {
        "_id":"c-340",
        "_parentId":"b-340",
        "_type":"component",
        "_delay":"200",
        "_color":"#F8F8F8",
        "_classes":"",
        "_component":"arrowbox",
        "_layout":"full",
        "title":"재생 시간",
        "displayTitle":"",
        "body":"<div style='margin-left:5%; margin-right:5%; height:100%; color:#000000;'><h2>재생 시간</h2><br>관심을 유도하는 것이 가장 중요합니다. 초반부에 핵심적인 내용을 보여주고 재생 시간 내내 시청자의 시선을 사로잡으세요.<br><br><ul><li><b>짧은 시간 내에 메시지를 전달하세요</b><br>비즈니스 메시지를 효과적으로 전달하기에 가장 적절한 재생 시간으로 자산 길이를 줄이세요.  가장 중요하고 흥미로운 장면을 선택하여 짧은 시간 안에 효과적으로 메시지를 전달하세요.</li><br><li><b>가장 흥미로운 장면으로 시작하세요</b><br>모바일 환경에 맞게 동영상을 자를 때 동영상에서 가장 중요한 부분 앞에서 자르세요. 가장 중요하고 흥미로운 장면 1~2개를 선택하여 짧은 시간 안에 효과적으로 메시지를 전달하세요.</li><br><li><b>마지막 부분에 넣을 짧은 스토리를 여러 편 만들어보세요</b><br>이는 긴 TV 광고 크리에이티브를 효과적으로 대체할 수 있는 방법입니다. 여러분의 TV 광고에 좋은 내용이 너무 많아 쉽게 축약할 수 없다면 짧은 동영상으로 나눈 미니 시리즈를 만들어보세요. 여러 편의 스토리를 통해 동일한 메시지를 명확하면서도 효과적으로 전달할 수 있습니다.</li></ul></div>",
        "_popupBody":"",
        "_popupTitle":"",
        "instruction":"",
        "_pageLevelProgress": {
            "_isEnabled": true
        }
    },
    {
        "_id":"c-341",
        "_parentId":"b-340",
        "_type":"component",
        "_component":"text",
        "_classes":"",
        "_layout":"full",
        "title":"Samsung",
        "displayTitle":"",
        "body":"이 예시에서 Samsung은 원본 TV 광고를 쪼개어 여러 챕터와 장면으로 재구성하였습니다.   각 챕터의 시작 장면에도 브랜드와 로고가 등장하고, 마지막에도 브랜드와 로고가 명확히 나타납니다.",
        "instruction":"",
        "_pageLevelProgress": {
          "_isEnabled": false
        }
    },
    {
        "_id":"c-341a",
        "_parentId":"b-340",
        "_type":"component",
        "_component":"text",
        "_classes":"",
        "_layout":"full",
        "title":"제목",
        "displayTitle":"",
        "body":"<div class='leftDiv3colText textPaddingRight'>원본 TV 광고</div><!-- leftDiv3colText end --><div class='centerDiv3colText'>모바일에 최적화한 광고<br>(20초)</div><!-- centerDiv3colText end --><div class='rightDiv3colText textPaddingLeft'>모바일에 최적화한 광고<br>(15초)</div><!-- rightDiv3colText end --><br>",
        "instruction":"",
        "_pageLevelProgress": {
            "_isEnabled": false
        }
    },
    {
        "_id":"c-342",
        "_parentId":"b-340",
        "_type":"component",
        "_component":"media",
        "_classes":"",
        "_layout":"full",
        "title":"",
        "displayTitle": "",
        "body": "",
        "instruction": "",
        "_setCompletionOn":"inview",
        "_useClosedCaptions":false,
        "_media": {
            "width":"768",
                "height":"431",
                "mp4": "course/en/images/04_applying_craft/samsung.mp4"
        },
        "_playerOptions": {
            "poster": "course/en/images/04_applying_craft/samsung_poster.png",
            "showPosterWhenEnded": false,
            "defaultVideoWidth": 768,
            "defaultVideoHeight": 431,
            "videoWidth": -1,
            "videoHeight": -1,
            "defaultAudioWidth": 768,
            "defaultAudioHeight": 30,
            "defaultSeekBackwardInterval": "(media.duration * 0.05)",
            "defaultSeekForwardInterval": "(media.duration * 0.05)",
            "audioWidth": -1,
            "audioHeight": -1,
            "startVolume": 0.8,
            "loop": false,
            "autoRewind": true,
            "enableAutosize": true,
            "alwaysShowHours": false,
            "showTimecodeFrameCount": false,
            "framesPerSecond": 25,
            "autosizeProgress" : true,
            "alwaysShowControls": true,
            "hideVideoControlsOnLoad": false,
            "clickToPlayPause": true,
            "iPadUseNativeControls": false,
            "iPhoneUseNativeControls": false,
            "AndroidUseNativeControls": false,
            "features": ["playpause","current","progress","duration","tracks","volume","fullscreen"],
            "isVideo": true,
            "enableKeyboard": true,
            "pauseOtherPlayers": true,
            "startLanguage": "",
            "tracksText": "mejs.i18n.t('Captions/Subtitles')",
            "hideCaptionsButtonWhenEmpty": true,
            "toggleCaptionsButtonWhenOnlyOne": false,
            "slidesSelector": "",
            "autoPlay": true
        },
        "_pageLevelProgress": {
          "_isEnabled": false
        }
    },
    {
        "_id":"c-343",
        "_parentId":"b-340",
        "_type":"component",
        "_component":"text",
        "_classes":"",
        "_layout":"full",
        "title":"",
        "displayTitle":"",
        "body":"<br>",
        "instruction":"",
        "_pageLevelProgress": {
          "_isEnabled": false
        }
    },
    {
        "_id":"c-350",
        "_parentId":"b-350",
        "_type":"component",
        "_delay":"200",
        "_color":"#F8F8F8",
        "_classes":"",
        "_component":"arrowbox",
        "_layout":"full",
        "title":"스토리 구성",
        "displayTitle":"",
        "body":"<div style='margin-left:5%; margin-right:5%; height:100%; color:#000000;'><h2>스토리 구성</h2><br>기존의 스토리 구성에서 벗어나 새로운 접근 방식을 테스트해보세요.<br><br><ul><li><b>속도감 있게 스토리를 전개하세요</b><br>모바일 콘텐츠를 소비하는 속도가 점점 더 빨라지고 있습니다. 사람들은 빠른 속도로 전개되는 시각적 콘텐츠에 매료됩니다. 짧은 시간 내에 사람들이 이해할 수 있는 스토리를 전달하는 다양한 방법을 과감히 시도해보세요.</li><br><li><b>결론부터 보여줄 수도 있습니다</b><br>스토리 전개를 뒤집어서 메시지를 더 빠르게 전달해보세요. 단도직입적으로 핵심 메시지부터 전달하며 광고를 시작해도 좋습니다.</li><br><li><b>심장 박동과 같은 리듬을 만드세요</b><br>심장 박동과 같은 시각적 리듬을 만들어보세요. TV 광고에서 종종 들을 수 있는 강렬한 비트를 영상만으로도 충분히 표현할 수 있습니다.</li></ul></div>",
        "_popupBody":"",
        "_popupTitle":"",
        "instruction":"",
        "_pageLevelProgress": {
            "_isEnabled": true
        }
    },
    {
        "_id":"c-351",
        "_parentId":"b-350",
        "_type":"component",
        "_component":"text",
        "_classes":"",
        "_layout":"full",
        "title":"Toyota",
        "displayTitle":"",
        "body":"Toyota의 원본 TV 광고와 모바일에 최적화된 동영상을 함께 확인해보세요.  <br><br>Toyota는 모바일에 최적화된 동영상에서 짤막한 영상들과 텍스트를 속도감 있게 전개하며 신차 Corolla Altis의 특징을 강조하여 보여주었습니다.",
        "instruction":"",
        "_pageLevelProgress": {
          "_isEnabled": false
        }
    },
    {
        "_id":"c-352",
        "_parentId":"b-351",
        "_type":"component",
        "_component":"text",
        "_classes":"",
        "_layout":"full",
        "title":"제목",
        "displayTitle":"",
        "body":"<div class='leftDiv2colText textPaddingRight'>원본 TV 광고</div><!-- leftDiv2colText end --><div class='rightDiv2colText textPaddingLeft'>모바일에 최적화한 광고<br>(15초)</div><!-- rightDiv2colText end -->",
        "instruction":"",
        "_pageLevelProgress": {
            "_isEnabled": false
        }
    },
    {
        "_id":"c-355",
        "_parentId":"b-352",
        "_type":"component",
        "_component":"media",
        "_classes":"",
        "_layout":"full",
        "title":"",
        "displayTitle": "",
        "body": "",
        "instruction": "",
        "_setCompletionOn":"inview",
        "_useClosedCaptions":false,
        "_media": {
            "width":"768",
                "height":"431",
                "mp4": "course/en/images/04_applying_craft/toyota.mp4"
        },
        "_playerOptions": {
            "poster": "course/en/images/04_applying_craft/toyota_poster.png",
            "showPosterWhenEnded": false,
            "defaultVideoWidth": 768,
            "defaultVideoHeight": 431,
            "videoWidth": -1,
            "videoHeight": -1,
            "defaultAudioWidth": 768,
            "defaultAudioHeight": 30,
            "defaultSeekBackwardInterval": "(media.duration * 0.05)",
            "defaultSeekForwardInterval": "(media.duration * 0.05)",
            "audioWidth": -1,
            "audioHeight": -1,
            "startVolume": 0.8,
            "loop": false,
            "autoRewind": true,
            "enableAutosize": true,
            "alwaysShowHours": false,
            "showTimecodeFrameCount": false,
            "framesPerSecond": 25,
            "autosizeProgress" : true,
            "alwaysShowControls": true,
            "hideVideoControlsOnLoad": false,
            "clickToPlayPause": true,
            "iPadUseNativeControls": false,
            "iPhoneUseNativeControls": false,
            "AndroidUseNativeControls": false,
            "features": ["playpause","current","progress","duration","tracks","volume","fullscreen"],
            "isVideo": true,
            "enableKeyboard": true,
            "pauseOtherPlayers": true,
            "startLanguage": "",
            "tracksText": "mejs.i18n.t('Captions/Subtitles')",
            "hideCaptionsButtonWhenEmpty": true,
            "toggleCaptionsButtonWhenOnlyOne": false,
            "slidesSelector": "",
            "autoPlay": true
        },
        "_pageLevelProgress": {
          "_isEnabled": false
        }
    },
    {
        "_id":"c-356",
        "_parentId":"b-352",
        "_type":"component",
        "_component":"text",
        "_classes":"",
        "_layout":"full",
        "title":"",
        "displayTitle":"",
        "body":"<br>",
        "instruction":"",
        "_pageLevelProgress": {
          "_isEnabled": false
        }
    },
    {
        "_id":"c-360",
        "_parentId":"b-355",
        "_type":"component",
        "_delay":"200",
        "_color":"#F8F8F8",
        "_classes":"",
        "_component":"arrowbox",
        "_layout":"full",
        "title":"다양한 테스트",
        "displayTitle":"",
        "body":"<div style='margin-left:5%; margin-right:5%; height:100%; color:#000000;'><h2>다양한 테스트</h2><br>기존의 TV 광고를 하나의 내러티브가 아니라 여러 자산의 컬렉션이라고 생각해보세요.<br><br><ul><li>다양한 형식과 요소를 테스트하세요(3D와 시각적 드라마 활용).</li><li>시선을 사로잡고 흥미로우며 인상적인 부분이 반복 재생되는 짧은 동영상을 만들어보세요.</li></ul></div>",
        "_popupBody":"",
        "_popupTitle":"",
        "instruction":"",
        "_pageLevelProgress": {
            "_isEnabled": true
        }
    },
    {
        "_id":"c-361",
        "_parentId":"b-355",
        "_type":"component",
        "_component":"text",
        "_classes":"",
        "_layout":"full",
        "title":"Toyota",
        "displayTitle":"",
        "body":"McDonald 말레이시아는 원본 TV 광고 자산을 모바일에 최적화된 6개 동영상으로 재구성했습니다.  여기에는 동영상 GIF, 슬라이드쇼, 동영상 슬라이드 등 다양한 형식이 포함되었습니다.",
        "instruction":"",
        "_pageLevelProgress": {
          "_isEnabled": false
        }
    },
    {
        "_id":"c-360a",
        "_parentId":"b-360",
        "_type":"component",
        "_component":"text",
        "_classes":"",
        "_layout":"full",
        "title":"제목",
        "displayTitle":"",
        "body":"<div class='leftDiv3colText textPaddingRight'>원본 TV 광고</div><!-- leftDiv3colText end --><div class='centerDiv3colText'>모바일에 최적화한 광고<br>(13초)</div><!-- centerDiv3colText end --><div class='rightDiv3colText textPaddingLeft'>동영상 GIF</div><!-- rightDiv3colText end -->",
        "instruction":"",
        "_pageLevelProgress": {
          "_isEnabled": false
        }
    },
    {
        "_id":"c-365",
        "_parentId":"b-365",
        "_type":"component",
        "_component":"media",
        "_classes":"",
        "_layout":"full",
        "title":"",
        "displayTitle": "",
        "body": "",
        "instruction": "",
        "_setCompletionOn":"inview",
        "_useClosedCaptions":false,
        "_media": {
            "width":"768",
                "height":"431",
                "mp4": "course/en/images/04_applying_craft/mcdonalds1.mp4"
        },
        "_playerOptions": {
            "poster": "course/en/images/04_applying_craft/mcdonalds1_poster.png",
            "showPosterWhenEnded": false,
            "defaultVideoWidth": 768,
            "defaultVideoHeight": 431,
            "videoWidth": -1,
            "videoHeight": -1,
            "defaultAudioWidth": 768,
            "defaultAudioHeight": 30,
            "defaultSeekBackwardInterval": "(media.duration * 0.05)",
            "defaultSeekForwardInterval": "(media.duration * 0.05)",
            "audioWidth": -1,
            "audioHeight": -1,
            "startVolume": 0.8,
            "loop": false,
            "autoRewind": true,
            "enableAutosize": true,
            "alwaysShowHours": false,
            "showTimecodeFrameCount": false,
            "framesPerSecond": 25,
            "autosizeProgress" : true,
            "alwaysShowControls": true,
            "hideVideoControlsOnLoad": false,
            "clickToPlayPause": true,
            "iPadUseNativeControls": false,
            "iPhoneUseNativeControls": false,
            "AndroidUseNativeControls": false,
            "features": ["playpause","current","progress","duration","tracks","volume","fullscreen"],
            "isVideo": true,
            "enableKeyboard": true,
            "pauseOtherPlayers": true,
            "startLanguage": "",
            "tracksText": "mejs.i18n.t('Captions/Subtitles')",
            "hideCaptionsButtonWhenEmpty": true,
            "toggleCaptionsButtonWhenOnlyOne": false,
            "slidesSelector": "",
            "autoPlay": true
        },
        "_pageLevelProgress": {
          "_isEnabled": false
        }
    },
    {
        "_id":"c-361a",
        "_parentId":"b-370",
        "_type":"component",
        "_component":"text",
        "_classes":"",
        "_layout":"full",
        "title":"제목",
        "displayTitle":"",
        "body":"<div class='leftDiv3colText textPaddingRight'>모바일에 최적화한 광고<br>(3초)</div><!-- leftDiv3colText end --><div class='centerDiv3colText'>모바일에 최적화한 광고<br>(5초)</div><!-- centerDiv3colText end --><div class='rightDiv3colText textPaddingLeft'>슬라이드쇼</div><!-- rightDiv3colText end -->",
        "instruction":"",
        "_pageLevelProgress": {
          "_isEnabled": false
        }
    },
    {
        "_id":"c-362",
        "_parentId":"b-375",
        "_type":"component",
        "_component":"media",
        "_classes":"",
        "_layout":"full",
        "title":"",
        "displayTitle": "",
        "body": "",
        "instruction": "",
        "_setCompletionOn":"inview",
        "_useClosedCaptions":false,
        "_media": {
            "width":"768",
                "height":"431",
                "mp4": "course/en/images/04_applying_craft/mcdonalds2.mp4"
        },
        "_playerOptions": {
            "poster": "course/en/images/04_applying_craft/mcdonalds2_poster.png",
            "showPosterWhenEnded": false,
            "defaultVideoWidth": 768,
            "defaultVideoHeight": 431,
            "videoWidth": -1,
            "videoHeight": -1,
            "defaultAudioWidth": 768,
            "defaultAudioHeight": 30,
            "defaultSeekBackwardInterval": "(media.duration * 0.05)",
            "defaultSeekForwardInterval": "(media.duration * 0.05)",
            "audioWidth": -1,
            "audioHeight": -1,
            "startVolume": 0.8,
            "loop": false,
            "autoRewind": true,
            "enableAutosize": true,
            "alwaysShowHours": false,
            "showTimecodeFrameCount": false,
            "framesPerSecond": 25,
            "autosizeProgress" : true,
            "alwaysShowControls": true,
            "hideVideoControlsOnLoad": false,
            "clickToPlayPause": true,
            "iPadUseNativeControls": false,
            "iPhoneUseNativeControls": false,
            "AndroidUseNativeControls": false,
            "features": ["playpause","current","progress","duration","tracks","volume","fullscreen"],
            "isVideo": true,
            "enableKeyboard": true,
            "pauseOtherPlayers": true,
            "startLanguage": "",
            "tracksText": "mejs.i18n.t('Captions/Subtitles')",
            "hideCaptionsButtonWhenEmpty": true,
            "toggleCaptionsButtonWhenOnlyOne": false,
            "slidesSelector": "",
            "autoPlay": true
        },
        "_pageLevelProgress": {
          "_isEnabled": false
        }
    },
    {
        "_id":"c-363",
        "_parentId":"b-380",
        "_type":"component",
        "_component":"media",
        "_classes":"",
        "_layout":"full",
        "title":"",
        "displayTitle": "",
        "body": "<div style='text-align:center;'>동영상 슬라이드</div>",
        "instruction": "",
        "_setCompletionOn":"inview",
        "_useClosedCaptions":false,
        "_media": {
            "width":"768",
                "height":"431",
                "mp4": "course/en/images/04_applying_craft/mcdonalds_carousel.mp4"
        },
        "_playerOptions": {
            "poster": "course/en/images/04_applying_craft/mcdonalds_carousel_poster.png",
            "showPosterWhenEnded": false,
            "defaultVideoWidth": 768,
            "defaultVideoHeight": 431,
            "videoWidth": -1,
            "videoHeight": -1,
            "defaultAudioWidth": 768,
            "defaultAudioHeight": 30,
            "defaultSeekBackwardInterval": "(media.duration * 0.05)",
            "defaultSeekForwardInterval": "(media.duration * 0.05)",
            "audioWidth": -1,
            "audioHeight": -1,
            "startVolume": 0.8,
            "loop": false,
            "autoRewind": true,
            "enableAutosize": true,
            "alwaysShowHours": false,
            "showTimecodeFrameCount": false,
            "framesPerSecond": 25,
            "autosizeProgress" : true,
            "alwaysShowControls": true,
            "hideVideoControlsOnLoad": false,
            "clickToPlayPause": true,
            "iPadUseNativeControls": false,
            "iPhoneUseNativeControls": false,
            "AndroidUseNativeControls": false,
            "features": ["playpause","current","progress","duration","tracks","volume","fullscreen"],
            "isVideo": true,
            "enableKeyboard": true,
            "pauseOtherPlayers": true,
            "startLanguage": "",
            "tracksText": "mejs.i18n.t('Captions/Subtitles')",
            "hideCaptionsButtonWhenEmpty": true,
            "toggleCaptionsButtonWhenOnlyOne": false,
            "slidesSelector": "",
            "autoPlay": true
        },
        "_pageLevelProgress": {
          "_isEnabled": false
        }
    },
    {
        "_id": "c-390",
        "_parentId": "b-390",
        "_type": "component",
        "_component": "co-jump",
        "_classes": "color-test",
        "_preLinkBody": "이 과정에서 많은 내용을 살펴보았습니다.  이제 ",
        "_linkBody": "정리 및 요약",
        "_postLinkBody": " 과정을 통해 지금까지 배운 내용을 정리해보겠습니다.",
        "_link": "#/id/co-250",
        "_graphic": "adapt/css/assets/icon_nextPage.png",
        "_pageLevelProgress": {
            "_isEnabled": false
        }
    },
    {
        "_id":"c-400",
        "_parentId":"b-400",
        "_type":"component",
        "_component":"text",
        "_classes":"",
        "_layout":"full",
        "title":"",
        "displayTitle":"",
        "body":"PockeTVC의 기본적인 컨셉은 TV 자산을 모바일 환경에 적합하게 재구성하는 것입니다. 다음은 모바일 피드에 맞게 콘텐츠를 재구성할 때 참고할 만한 팁을 간략하게 요약한 것입니다.",
        "instruction":"",
        "_pageLevelProgress": {
            "_isEnabled": false
        }
    },
    {
        "_id":"c-401",
        "_parentId":"b-400",
        "_type":"component",
        "_component":"text",
        "_classes":"",
        "_layout":"full",
        "title":"정리 및 요약",
        "displayTitle":"",
        "body":"<div style='overflow-x:auto;'><table class='table-style-6'><tr><td class='table-style-6' width='33.3%' style='text-align:left'></td><td class='table-style-6' width='33.3%' style='text-align:center; vertical-align: middle'><div style='color:#0c6bb5; font-weight: bold'>작은 변화는</div> 결국 <div style='color:#0c6bb5; font-weight: bold'>작은 성과로 이어짐</div></td><td class='table-style-6' width='33.3%' style='text-align: center; vertical-align: middle'><div style='color:#0c6bb5; font-size: 25px; font-weight: bold; line-height: 100%'>큰 변화는</div>결국<div style='color:#0c6bb5; font-size: 35px; font-weight: bold; line-height: 100%'>큰 성과로 이어짐</div></td></tr><tr><td class='table-style-6' style='text-align:left'><b>브랜드와 메시지</b></td><td class='table-style-6' style='text-align:left'>형식적으로 로고 추가하기</td><td class='table-style-6' style='text-align:left'>첫 3초 안에 브랜드 스토리 소개하기</td></tr><tr><td class='table-style-6' style='text-align:left'><b>타이포그래피와 캡션</b></td><td class='table-style-6' style='text-align:left'>원본 TV 광고에 자막 추가하기</td><td class='table-style-6' style='text-align:left'>역동적인 문구와 그래픽을 활용하여 생생하게 스토리 전달하기</td></tr><tr><td class='table-style-6' style='text-align:left'><b>자르기 및 비율</b></td><td class='table-style-6' style='text-align:left'>4:3 또는 1:1 화면 비율</td><td class='table-style-6' style='text-align:left'>다양한 화면 비율과 화면 분할, 그리드 기법 활용하기</td></tr><tr><td class='table-style-6' style='text-align:left'><b>재생 시간</b></td><td class='table-style-6' style='text-align:left'>동영상을 짧게 자르기</td><td class='table-style-6' style='text-align:left'>스토리를 축약하여 표현하기</td></tr><tr><td class='table-style-6' style='text-align:left'><b>스토리 구성</b></td><td class='table-style-6' style='text-align:left'>기존의 스토리 구성 유지하기</td><td class='table-style-6' style='text-align:left'>핵심 메시지를 빠르게 전달할 수 있도록 스토리 재구성하기</td></tr><tr><td class='table-style-6' style='text-align:left'><b>다양한 테스트</b></td><td class='table-style-6' style='text-align:left'>전체 Facebook 앱 패밀리에 걸친 다양한 제품 활용하기</td><td class='table-style-6' style='text-align:left'>전체 Facebook 앱 패밀리에 걸친 다양한 제품 활용하기</td></tr></table><!-- table end --></div><!-- overflow-x:auto; end -->",
        "instruction":"",
        "_pageLevelProgress": {
            "_isEnabled": true
        }
    },
    {
        "_id":"c-490",
        "_parentId":"b-490",
        "_type":"component",
        "_component":"co-jump",
        "_classes":"color-test",
        "_autoComplete":true,
        "_preLinkBody":"이 과정을 마치려면 아래 버튼을 클릭하세요. 세부 과정을 모두 학습했는지 확인하려면 <a href='#'>여기를 클릭</a>하세요.<br>",
        "_linkBody":"<div style = 'text-align:center;padding:8px;'><button class='buttons-action'><b>과정 완료</b></button></div><br> ",
        "_postLinkBody":"",
        "_link":"",
        "_pageLevelProgress": {
            "_isEnabled": false
        }
    }


]
